Simultaneous Selection by Trait and WAASB Index
…
data <- waasb_model$GY$model
print(data)
#> # A tibble: 24 × 22
#>    type  Code      Y     PC1     PC2     PC3     PC4     PC5     PC6     PC7
#>    <chr> <chr> <dbl>   <dbl>   <dbl>   <dbl>   <dbl>   <dbl>   <dbl>   <dbl>
#>  1 GEN   G1     2.60  0.246  -0.0482 -0.0314 -0.0513 -0.146  -0.419   0.117 
#>  2 GEN   G10    2.47 -0.819  -0.421  -0.128  -0.266  -0.116   0.0575  0.0480
#>  3 GEN   G2     2.74  0.119   0.154  -0.585   0.376  -0.0810  0.202   0.0975
#>  4 GEN   G3     2.96  0.0437 -0.0793  0.187   0.138  -0.175   0.155  -0.370 
#>  5 GEN   G4     2.64 -0.243   0.393  -0.0723  0.113  -0.113  -0.279  -0.126 
#>  6 GEN   G5     2.54 -0.256   0.206   0.193   0.145   0.365   0.0546  0.187 
#>  7 GEN   G6     2.53 -0.0753  0.195   0.445   0.192   0.0685  0.0353  0.0180
#>  8 GEN   G7     2.74  0.247   0.458  -0.166  -0.565   0.172   0.103  -0.0930
#>  9 GEN   G8     3.00  0.404  -0.166   0.259  -0.136  -0.310   0.175   0.222 
#> 10 GEN   G9     2.51  0.334  -0.692  -0.102   0.0537  0.335  -0.0845 -0.0991
#> # ℹ 14 more rows
#> # ℹ 12 more variables: PC8 <dbl>, PC9 <dbl>, WAASB <dbl>, PctResp <dbl>,
#> #   PctWAASB <dbl>, wRes <dbl>, wWAASB <dbl>, OrResp <dbl>, OrWAASB <dbl>,
#> #   OrPC1 <dbl>, WAASBY <dbl>, OrWAASBY <dbl>
…
